João Silva;333.345.123-35;joao@gmail.com
Maria Silva;351.342.344-35;maria@gmail.com
Pedro Antônio;251.452.313-45;pedro@gmail.com
José Faria;562.452.334-64;jose@gmail.com
Ana Pires;495.234.555-67;ana@gmail.com
Diogo Freixo;345.127.845-56;diogo@gmail.com
Marta Soares;859.334.124-56;marta@gmail.com
Ricardo Antônio;875.634.145-34;ricardo@gmail.com
Amanda Costa;931.587.367-12;amanda@gmail.com
André Andrade;684.333.567-12;andre@gmail.com
Nicolas Augusto;458.234.285-33;nicolas@gmail.com
Plínio Patroval;613.551.315-37;plinio@gmail.com